module gitlab.com/LukeManson/touch-ajbell-challenge

go 1.22.4

require (
	github.com/google/uuid v1.6.0
	github.com/steinfletcher/apitest v1.5.16
	google.golang.org/grpc v1.64.0
	google.golang.org/protobuf v1.34.2
)

require (
	github.com/davecgh/go-spew v1.1.1 // indirect
	golang.org/x/net v0.22.0 // indirect
	golang.org/x/sys v0.18.0 // indirect
	golang.org/x/text v0.14.0 // indirect
	google.golang.org/genproto/googleapis/rpc v0.0.0-20240318140521-94a12d6c2237 // indirect
)
